Scalable Shapley Explanations in R
…
# Prediction wrapper for `fastshap::explain()`; has to return a 
# single (atomic) vector of predictions
pfun <- function(object, newdata) {  # computes prob(Survived=1|x)
  predict(object, data = newdata)$predictions[, 2]
}

# Estimate feature contributions for each imputed training set
X <- subset(titanic, select = -Survived)  # features only!
set.seed(1051)  # for reproducibility
*(ex.all <- explain(rfo, X = X, nsim = 100, adjust = TRUE,  pred_wrapper = pfun))
```

```
## # A tibble: 714 x 7
##     Pclass     Sex      Age    SibSp     Parch     Fare Embarked
##      <dbl>   <dbl>    <dbl>    <dbl>     <dbl>    <dbl>    <dbl>
##  1 -0.0431 -0.184  -0.00469  0.0140  -0.0121   -0.0301  -0.0181 
##  2  0.170   0.270  -0.0114   0.00204  0.00164   0.114    0.0378 
##  3 -0.122   0.230   0.0226   0.0209  -0.00687  -0.0258  -0.0172 
##  4  0.156   0.288   0.0106  -0.00589  0.00361   0.123   -0.00997
##  5 -0.0413 -0.157  -0.0320   0.0141  -0.00523  -0.0710  -0.00295
##  6  0.0550 -0.197  -0.117   -0.00330 -0.00210   0.0704  -0.0103 
##  7 -0.0857 -0.0972  0.220   -0.157    0.0182   -0.0709  -0.00627
##  8 -0.113   0.264   0.0518   0.0318   0.0575    0.0294  -0.00218
##  9  0.0796  0.323   0.0406  -0.00369 -0.000850  0.00905  0.0520 
## 10 -0.110   0.140   0.239   -0.00889  0.0389    0.0482  -0.00439
## # ... with 704 more rows
```
…
